{
  "$schema": "https://schema.management.azure.com/schemas/2015-01-01/deploymentTemplate.json#",
  "contentVersion": "1.0.0.0",
  "parameters": {
    "name": {
      "type": "String"
    },
    "location": {
      "type": "String"
    }
  },
  "resources": [
    {
      "type": "Microsoft.Insights/components",
      "apiVersion": "2015-05-01",
      "tags": {
        "[concat('hidden-link:', resourceGroup().id, '/providers/Microsoft.Web/sites/', parameters('name'))]": "Resource"
      },
      "name": "[parameters('name')]",
      "location": "[parameters('location')]",
      "properties": {
        "ApplicationId": "[parameters('name')]",
        "Application_Type": "web"
      }
    }
  ],
  "outputs": {
    "instrumentation_key": {
      "type": "string",
      "value": "[reference(concat('Microsoft.Insights/components/', parameters('name'))).InstrumentationKey]"
    }
  }
}
